Demographic Analysis of Wind Instrument Musicians and RMT Device Usage
…
Code

# Print frequency table and significance test results
cat("\nFrequency Table for Instrument-specific Data:\n")

Frequency Table for Instrument-specific Data:

Code

print(freq_table_instruments)

# A tibble: 70 × 4
# Groups:   instrument [14]
   instrument yrsPlay_inst_cat count percentage
   <fct>      <fct>            <int>      <dbl>
 1 Flute      <5yrs               69      15.6 
 2 Flute      5-9yrs              95      21.4 
 3 Flute      10-14yrs            85      19.2 
 4 Flute      15-19yrs            37       8.35
 5 Flute      20+yrs             157      35.4 
 6 Piccolo    <5yrs               37      17.7 
 7 Piccolo    5-9yrs              56      26.8 
 8 Piccolo    10-14yrs            32      15.3 
 9 Piccolo    15-19yrs            22      10.5 
10 Piccolo    20+yrs              62      29.7 
# ℹ 60 more rows
…
Code

cat("\
Frequency Distribution (counts and percentages):\
")

Frequency Distribution (counts and percentages):

Code

print(freq_dist)

# A tibble: 75 × 5
# Groups:   instrument [15]
   instrument frequency                count percentage total_n
   <chr>      <fct>                    <int>      <dbl>   <int>
 1 Bagpipes   About once a month          10      16.9       59
 2 Bagpipes   Multiple times per month     5       8.47      59
 3 Bagpipes   About once a week            5       8.47      59
 4 Bagpipes   Multiple times per week     27      45.8       59
 5 Bagpipes   Everyday                    12      20.3       59
 6 Bassoon    About once a month           9       9.89      91
 7 Bassoon    Multiple times per month    11      12.1       91
 8 Bassoon    About once a week           19      20.9       91
 9 Bassoon    Multiple times per week     30      33.0       91
10 Bassoon    Everyday                    22      24.2       91
# ℹ 65 more rows
…
